%!PS-Adobe-3.0 EPSF-3.0
%%Title: ./outputs/phase.eps
%%Creator: matplotlib version 2.1.0, http://matplotlib.org/
%%CreationDate: Thu Nov  9 18:44:51 2017
%%Orientation: portrait
%%BoundingBox: 75 223 536 568
%%EndComments
%%BeginProlog
/mpldict 8 dict def
mpldict begin
/m { moveto } bind def
/l { lineto } bind def
/r { rlineto } bind def
/c { curveto } bind def
/cl { closepath } bind def
/box {
m
1 index 0 r
0 exch r
neg 0 r
cl
} bind def
/clipbox {
box
clip
newpath
} bind def
%!PS-Adobe-3.0 Resource-Font
%%Title: DejaVu Sans
%%Copyright: Copyright (c) 2003 by Bitstream, Inc. All Rights Reserved. Copyright (c) 2006 by Tavmjong Bah. All Rights Reserved. DejaVu changes are in public domain 
%%Creator: Converted from TrueType to type 3 by PPR
25 dict begin
/_d{bind def}bind def
/_m{moveto}_d
/_l{lineto}_d
/_cl{closepath eofill}_d
/_c{curveto}_d
/_sc{7 -1 roll{setcachedevice}{pop pop pop pop pop pop}ifelse}_d
/_e{exec}_d
/FontName /DejaVuSans def
/PaintType 0 def
/FontMatrix[.001 0 0 .001 0 0]def
/FontBBox[-1021 -463 1793 1232]def
/FontType 3 def
/Encoding [ /zero /one /two /three /four /five ] def
/FontInfo 10 dict dup begin
/FamilyName (DejaVu Sans) def
/FullName (DejaVu Sans) def
/Notice (Copyright (c) 2003 by Bitstream, Inc. All Rights Reserved. Copyright (c) 2006 by Tavmjong Bah. All Rights Reserved. DejaVu changes are in public domain ) def
/Weight (Book) def
/Version (Version 2.35) def
/ItalicAngle 0.0 def
/isFixedPitch false def
/UnderlinePosition -130 def
/UnderlineThickness 90 def
end readonly def
/CharStrings 7 dict dup begin
/.notdef 0 def
/zero{636 0 66 -13 570 742 _sc
318 664 _m
267 664 229 639 203 589 _c
177 539 165 464 165 364 _c
165 264 177 189 203 139 _c
229 89 267 64 318 64 _c
369 64 407 89 433 139 _c
458 189 471 264 471 364 _c
471 464 458 539 433 589 _c
407 639 369 664 318 664 _c
318 742 _m
399 742 461 709 505 645 _c
548 580 570 486 570 364 _c
570 241 548 147 505 83 _c
461 19 399 -13 318 -13 _c
236 -13 173 19 130 83 _c
87 147 66 241 66 364 _c
66 486 87 580 130 645 _c
173 709 236 742 318 742 _c
_cl}_d
/one{636 0 110 0 544 729 _sc
124 83 _m
285 83 _l
285 639 _l
110 604 _l
110 694 _l
284 729 _l
383 729 _l
383 83 _l
544 83 _l
544 0 _l
124 0 _l
124 83 _l
_cl}_d
/two{{636 0 73 0 536 742 _sc
192 83 _m
536 83 _l
536 0 _l
73 0 _l
73 83 _l
110 121 161 173 226 239 _c
290 304 331 346 348 365 _c
380 400 402 430 414 455 _c
426 479 433 504 433 528 _c
433 566 419 598 392 622 _c
365 646 330 659 286 659 _c
255 659 222 653 188 643 _c
154 632 117 616 78 594 _c
78 694 _l
118 710 155 722 189 730 _c
223 738 255 742 284 742 _c
}_e{359 742 419 723 464 685 _c
509 647 532 597 532 534 _c
532 504 526 475 515 449 _c
504 422 484 390 454 354 _c
446 344 420 317 376 272 _c
332 227 271 164 192 83 _c
_cl}_e}_d
/three{{636 0 76 -13 556 742 _sc
406 393 _m
453 383 490 362 516 330 _c
542 298 556 258 556 212 _c
556 140 531 84 482 45 _c
432 6 362 -13 271 -13 _c
240 -13 208 -10 176 -4 _c
144 1 110 10 76 22 _c
76 117 _l
103 101 133 89 166 81 _c
198 73 232 69 268 69 _c
330 69 377 81 409 105 _c
441 129 458 165 458 212 _c
458 254 443 288 413 312 _c
383 336 341 349 287 349 _c
}_e{202 349 _l
202 430 _l
291 430 _l
339 430 376 439 402 459 _c
428 478 441 506 441 543 _c
441 580 427 609 401 629 _c
374 649 336 659 287 659 _c
260 659 231 656 200 650 _c
169 644 135 635 98 623 _c
98 711 _l
135 721 170 729 203 734 _c
235 739 266 742 296 742 _c
370 742 429 725 473 691 _c
517 657 539 611 539 553 _c
539 513 527 479 504 451 _c
481 423 448 403 406 393 _c
_cl}_e}_d
/four{636 0 49 0 580 729 _sc
378 643 _m
129 254 _l
378 254 _l
378 643 _l
352 729 _m
476 729 _l
476 254 _l
580 254 _l
580 172 _l
476 172 _l
476 0 _l
378 0 _l
378 172 _l
49 172 _l
49 267 _l
352 729 _l
_cl}_d
/five{{636 0 77 -13 549 729 _sc
108 729 _m
495 729 _l
495 646 _l
198 646 _l
198 467 _l
212 472 227 476 241 478 _c
255 480 270 482 284 482 _c
365 482 429 459 477 415 _c
525 370 549 310 549 234 _c
549 155 524 94 475 51 _c
426 8 357 -13 269 -13 _c
238 -13 207 -10 175 -6 _c
143 -1 111 6 77 17 _c
77 116 _l
106 100 136 88 168 80 _c
199 72 232 69 267 69 _c
}_e{323 69 368 83 401 113 _c
433 143 450 183 450 234 _c
450 284 433 324 401 354 _c
368 384 323 399 267 399 _c
241 399 214 396 188 390 _c
162 384 135 375 108 363 _c
108 729 _l
_cl}_e}_d
end readonly def

/BuildGlyph
 {exch begin
 CharStrings exch
 2 copy known not{pop /.notdef}if
 true 3 1 roll get exec
 end}_d

/BuildChar {
 1 index /Encoding get exch get
 1 index /BuildGlyph get exec
}_d

FontName currentdict end definefont pop
end
%%EndProlog
mpldict begin
75.6 223.2 translate
460.8 345.6 0 0 clipbox
gsave
0 0 m
460.8 0 l
460.8 345.6 l
0 345.6 l
cl
1.000 setgray
fill
grestore
gsave
57.6 38.016 m
414.72 38.016 l
414.72 304.128 l
57.6 304.128 l
cl
1.000 setgray
fill
grestore
0.800 setlinewidth
1 setlinejoin
0 setlinecap
[] 0 setdash
0.000 setgray
gsave
/o {
gsave
newpath
translate
0.8 setlinewidth
1 setlinejoin
0 setlinecap
0 0 m
0 -3.5 l

gsave
0.000 setgray
fill
grestore
stroke
grestore
} bind def
113.703 38.016 o
grestore
/DejaVuSans findfont
10.000 scalefont
setfont
gsave
107.343209 23.422250 translate
0.000000 rotate
0.000000 0.000000 m /five glyphshow
6.362305 0.000000 m /zero glyphshow
grestore
gsave
/o {
gsave
newpath
translate
0.8 setlinewidth
1 setlinejoin
0 setlinecap
0 0 m
0 -3.5 l

gsave
0.000 setgray
fill
grestore
stroke
grestore
} bind def
170.66 38.016 o
grestore
gsave
161.120459 23.422250 translate
0.000000 rotate
0.000000 0.000000 m /one glyphshow
6.362305 0.000000 m /zero glyphshow
12.724609 0.000000 m /zero glyphshow
grestore
gsave
/o {
gsave
newpath
translate
0.8 setlinewidth
1 setlinejoin
0 setlinecap
0 0 m
0 -3.5 l

gsave
0.000 setgray
fill
grestore
stroke
grestore
} bind def
227.616 38.016 o
grestore
gsave
218.077397 23.422250 translate
0.000000 rotate
0.000000 0.000000 m /one glyphshow
6.362305 0.000000 m /five glyphshow
12.724609 0.000000 m /zero glyphshow
grestore
gsave
/o {
gsave
newpath
translate
0.8 setlinewidth
1 setlinejoin
0 setlinecap
0 0 m
0 -3.5 l

gsave
0.000 setgray
fill
grestore
stroke
grestore
} bind def
284.573 38.016 o
grestore
gsave
275.034335 23.422250 translate
0.000000 rotate
0.000000 0.000000 m /two glyphshow
6.362305 0.000000 m /zero glyphshow
12.724609 0.000000 m /zero glyphshow
grestore
gsave
/o {
gsave
newpath
translate
0.8 setlinewidth
1 setlinejoin
0 setlinecap
0 0 m
0 -3.5 l

gsave
0.000 setgray
fill
grestore
stroke
grestore
} bind def
341.53 38.016 o
grestore
gsave
331.991272 23.422250 translate
0.000000 rotate
0.000000 0.000000 m /two glyphshow
6.362305 0.000000 m /five glyphshow
12.724609 0.000000 m /zero glyphshow
grestore
gsave
/o {
gsave
newpath
translate
0.8 setlinewidth
1 setlinejoin
0 setlinecap
0 0 m
0 -3.5 l

gsave
0.000 setgray
fill
grestore
stroke
grestore
} bind def
398.487 38.016 o
grestore
gsave
388.948210 23.422250 translate
0.000000 rotate
0.000000 0.000000 m /three glyphshow
6.362305 0.000000 m /zero glyphshow
12.724609 0.000000 m /zero glyphshow
grestore
gsave
/o {
gsave
newpath
translate
0.8 setlinewidth
1 setlinejoin
0 setlinecap
0 0 m
-3.5 0 l

gsave
0.000 setgray
fill
grestore
stroke
grestore
} bind def
57.6 50.112 o
grestore
gsave
44.240625 46.315075 translate
0.000000 rotate
0.000000 0.000000 m /zero glyphshow
grestore
gsave
/o {
gsave
newpath
translate
0.8 setlinewidth
1 setlinejoin
0 setlinecap
0 0 m
-3.5 0 l

gsave
0.000 setgray
fill
grestore
stroke
grestore
} bind def
57.6 105.794 o
grestore
gsave
31.521875 101.997094 translate
0.000000 rotate
0.000000 0.000000 m /one glyphshow
6.362305 0.000000 m /zero glyphshow
12.724609 0.000000 m /zero glyphshow
grestore
gsave
/o {
gsave
newpath
translate
0.8 setlinewidth
1 setlinejoin
0 setlinecap
0 0 m
-3.5 0 l

gsave
0.000 setgray
fill
grestore
stroke
grestore
} bind def
57.6 161.476 o
grestore
gsave
31.521875 157.679112 translate
0.000000 rotate
0.000000 0.000000 m /two glyphshow
6.362305 0.000000 m /zero glyphshow
12.724609 0.000000 m /zero glyphshow
grestore
gsave
/o {
gsave
newpath
translate
0.8 setlinewidth
1 setlinejoin
0 setlinecap
0 0 m
-3.5 0 l

gsave
0.000 setgray
fill
grestore
stroke
grestore
} bind def
57.6 217.158 o
grestore
gsave
31.521875 213.361130 translate
0.000000 rotate
0.000000 0.000000 m /three glyphshow
6.362305 0.000000 m /zero glyphshow
12.724609 0.000000 m /zero glyphshow
grestore
gsave
/o {
gsave
newpath
translate
0.8 setlinewidth
1 setlinejoin
0 setlinecap
0 0 m
-3.5 0 l

gsave
0.000 setgray
fill
grestore
stroke
grestore
} bind def
57.6 272.84 o
grestore
gsave
31.521875 269.043148 translate
0.000000 rotate
0.000000 0.000000 m /four glyphshow
6.362305 0.000000 m /zero glyphshow
12.724609 0.000000 m /zero glyphshow
grestore
1.000 setlinewidth
0.000 0.000 1.000 setrgbcolor
gsave
357.1 266.1 57.6 38.02 clipbox
/o {
gsave
newpath
translate
1.0 setlinewidth
1 setlinejoin
0 setlinecap
0 -0.5 m
0.132602 -0.5 0.25979 -0.447317 0.353553 -0.353553 c
0.447317 -0.25979 0.5 -0.132602 0.5 0 c
0.5 0.132602 0.447317 0.25979 0.353553 0.353553 c
0.25979 0.447317 0.132602 0.5 0 0.5 c
-0.132602 0.5 -0.25979 0.447317 -0.353553 0.353553 c
-0.447317 0.25979 -0.5 0.132602 -0.5 0 c
-0.5 -0.132602 -0.447317 -0.25979 -0.353553 -0.353553 c
-0.25979 -0.447317 -0.132602 -0.5 0 -0.5 c
cl

gsave
0.000 0.000 1.000 setrgbcolor
fill
grestore
stroke
grestore
} bind def
170.66 286.567 o
171.229 286.45 o
171.799 286.332 o
172.368 286.213 o
172.938 286.092 o
173.507 285.971 o
174.077 285.848 o
174.647 285.724 o
175.216 285.599 o
175.786 285.472 o
176.355 285.345 o
176.925 285.216 o
177.494 285.086 o
178.064 284.955 o
178.633 284.823 o
179.203 284.69 o
179.773 284.555 o
180.342 284.42 o
180.912 284.283 o
181.481 284.145 o
182.051 284.006 o
182.62 283.866 o
183.19 283.724 o
183.76 283.582 o
184.329 283.438 o
184.899 283.293 o
185.468 283.147 o
186.038 283 o
186.607 282.852 o
187.177 282.702 o
187.747 282.552 o
188.316 282.4 o
188.886 282.247 o
189.455 282.093 o
190.025 281.938 o
190.594 281.782 o
191.164 281.624 o
191.734 281.466 o
192.303 281.306 o
192.873 281.145 o
193.442 280.984 o
194.012 280.82 o
194.581 280.656 o
195.151 280.491 o
195.721 280.324 o
196.29 280.157 o
196.86 279.988 o
197.429 279.818 o
197.999 279.647 o
198.568 279.475 o
199.138 279.301 o
199.708 279.127 o
200.277 278.951 o
200.847 278.774 o
201.416 278.596 o
201.986 278.417 o
202.555 278.237 o
203.125 278.055 o
203.695 277.873 o
204.264 277.689 o
204.834 277.504 o
205.403 277.318 o
205.973 277.13 o
206.542 276.942 o
207.112 276.752 o
207.682 276.561 o
208.251 276.369 o
208.821 276.176 o
209.39 275.982 o
209.96 275.786 o
210.529 275.589 o
211.099 275.391 o
211.669 275.192 o
212.238 274.992 o
212.808 274.79 o
213.377 274.588 o
213.947 274.384 o
214.516 274.178 o
215.086 273.972 o
215.656 273.764 o
216.225 273.555 o
216.795 273.345 o
217.364 273.134 o
217.934 272.921 o
218.503 272.707 o
219.073 272.492 o
219.642 272.276 o
220.212 272.058 o
220.782 271.839 o
221.351 271.619 o
221.921 271.398 o
222.49 271.175 o
223.06 270.951 o
223.629 270.726 o
224.199 270.5 o
224.769 270.272 o
225.338 270.043 o
225.908 269.812 o
226.477 269.58 o
227.047 269.347 o
227.616 269.113 o
228.186 268.877 o
228.756 268.64 o
229.325 268.402 o
229.895 268.162 o
230.464 267.921 o
231.034 267.679 o
231.603 267.435 o
232.173 267.19 o
232.743 266.943 o
233.312 266.695 o
233.882 266.446 o
234.451 266.195 o
235.021 265.943 o
235.59 265.689 o
236.16 265.434 o
236.73 265.178 o
237.299 264.92 o
237.869 264.661 o
238.438 264.4 o
239.008 264.138 o
239.577 263.874 o
240.147 263.609 o
240.717 263.342 o
241.286 263.074 o
241.856 262.804 o
242.425 262.533 o
242.995 262.261 o
243.564 261.986 o
244.134 261.711 o
244.704 261.434 o
245.273 261.155 o
245.843 260.874 o
246.412 260.592 o
246.982 260.309 o
247.551 260.024 o
248.121 259.737 o
248.691 259.449 o
249.26 259.159 o
249.83 258.867 o
250.399 258.574 o
250.969 258.279 o
251.538 257.982 o
252.108 257.684 o
252.678 257.384 o
253.247 257.082 o
253.817 256.779 o
254.386 256.474 o
254.956 256.167 o
255.525 255.858 o
256.095 255.548 o
256.664 255.236 o
257.234 254.922 o
257.804 254.606 o
258.373 254.288 o
258.943 253.969 o
259.512 253.648 o
260.082 253.325 o
260.651 253 o
261.221 252.673 o
261.791 252.344 o
262.36 252.013 o
262.93 251.68 o
263.499 251.346 o
264.069 251.009 o
264.638 250.671 o
265.208 250.33 o
265.778 249.987 o
266.347 249.643 o
266.917 249.296 o
267.486 248.947 o
268.056 248.596 o
268.625 248.243 o
269.195 247.888 o
269.765 247.531 o
270.334 247.171 o
270.904 246.809 o
271.473 246.445 o
272.043 246.079 o
272.612 245.711 o
273.182 245.34 o
273.752 244.967 o
274.321 244.592 o
274.891 244.214 o
275.46 243.834 o
276.03 243.451 o
276.599 243.066 o
277.169 242.679 o
277.739 242.289 o
278.308 241.897 o
278.878 241.502 o
279.447 241.104 o
280.017 240.704 o
280.586 240.302 o
281.156 239.896 o
281.726 239.488 o
282.295 239.078 o
282.865 238.664 o
283.434 238.248 o
284.004 237.829 o
284.573 237.407 o
285.143 236.982 o
285.713 236.554 o
286.282 236.124 o
286.852 235.69 o
287.421 235.253 o
287.991 234.813 o
288.56 234.371 o
289.13 233.925 o
289.7 233.475 o
290.269 233.023 o
290.839 232.567 o
291.408 232.108 o
291.978 231.645 o
292.547 231.18 o
293.117 230.71 o
293.687 230.237 o
294.256 229.761 o
294.826 229.281 o
295.395 228.797 o
295.965 228.309 o
296.534 227.818 o
297.104 227.323 o
297.673 226.823 o
298.243 226.32 o
298.813 225.813 o
299.382 225.302 o
299.952 224.786 o
300.521 224.266 o
301.091 223.742 o
301.66 223.213 o
302.23 222.68 o
302.8 222.143 o
303.369 221.6 o
303.939 221.053 o
304.508 220.501 o
305.078 219.944 o
305.647 219.382 o
306.217 218.815 o
306.787 218.242 o
307.356 217.664 o
307.926 217.081 o
308.495 216.492 o
309.065 215.897 o
309.634 215.297 o
310.204 214.691 o
310.774 214.078 o
311.343 213.459 o
311.913 212.834 o
312.482 212.202 o
313.052 211.563 o
313.621 210.918 o
314.191 210.265 o
314.761 209.606 o
315.33 208.938 o
315.9 208.263 o
316.469 207.58 o
317.039 206.89 o
317.608 206.19 o
318.178 205.482 o
318.748 204.766 o
319.317 204.04 o
319.887 203.305 o
320.456 202.56 o
321.026 201.805 o
321.595 201.039 o
322.165 200.263 o
322.735 199.476 o
323.304 198.677 o
323.874 197.866 o
324.443 197.042 o
325.013 196.206 o
325.582 195.356 o
326.152 194.492 o
326.722 193.614 o
327.291 192.72 o
327.861 191.809 o
328.43 190.882 o
329 189.938 o
329.569 188.974 o
330.139 187.991 o
330.709 186.988 o
331.278 185.962 o
331.848 184.913 o
332.417 183.839 o
332.987 182.739 o
333.556 181.61 o
334.126 180.451 o
334.696 179.26 o
335.265 178.033 o
335.835 176.767 o
336.404 175.46 o
336.974 174.107 o
337.543 172.703 o
338.113 171.242 o
338.682 169.719 o
339.252 168.123 o
339.822 166.446 o
340.391 164.673 o
340.961 162.788 o
341.53 160.769 o
342.1 158.583 o
342.669 156.186 o
343.239 153.506 o
343.809 150.425 o
344.378 146.709 o
344.948 141.788 o
grestore
0.000 0.502 0.000 setrgbcolor
gsave
357.1 266.1 57.6 38.02 clipbox
/o {
gsave
newpath
translate
1.0 setlinewidth
1 setlinejoin
0 setlinecap
0 -0.5 m
0.132602 -0.5 0.25979 -0.447317 0.353553 -0.353553 c
0.447317 -0.25979 0.5 -0.132602 0.5 0 c
0.5 0.132602 0.447317 0.25979 0.353553 0.353553 c
0.25979 0.447317 0.132602 0.5 0 0.5 c
-0.132602 0.5 -0.25979 0.447317 -0.353553 0.353553 c
-0.447317 0.25979 -0.5 0.132602 -0.5 0 c
-0.5 -0.132602 -0.447317 -0.25979 -0.353553 -0.353553 c
-0.25979 -0.447317 -0.132602 -0.5 0 -0.5 c
cl

gsave
0.000 0.502 0.000 setrgbcolor
fill
grestore
stroke
grestore
} bind def
398.487 50.1121 o
397.918 50.1121 o
397.348 50.1121 o
396.779 50.1121 o
396.209 50.1121 o
395.639 50.1121 o
395.07 50.1121 o
394.5 50.1121 o
393.931 50.1121 o
393.361 50.1121 o
392.792 50.1121 o
392.222 50.1121 o
391.652 50.1121 o
391.083 50.1121 o
390.513 50.1121 o
389.944 50.1121 o
389.374 50.1121 o
388.805 50.1121 o
388.235 50.1121 o
387.665 50.1121 o
387.096 50.1121 o
386.526 50.1121 o
385.957 50.1121 o
385.387 50.1121 o
384.818 50.1121 o
384.248 50.1121 o
383.678 50.1121 o
383.109 50.1121 o
382.539 50.1121 o
381.97 50.1121 o
381.4 50.1121 o
380.831 50.1121 o
380.261 50.1121 o
379.691 50.1121 o
379.122 50.1121 o
378.552 50.1121 o
377.983 50.1121 o
377.413 50.1121 o
376.844 50.1121 o
376.274 50.1121 o
375.704 50.1121 o
375.135 50.1121 o
374.565 50.1121 o
373.996 50.1121 o
373.426 50.1121 o
372.857 50.1121 o
372.287 50.1121 o
371.718 50.1121 o
371.148 50.1121 o
370.578 50.1121 o
370.009 50.1121 o
369.439 50.1121 o
368.87 50.1121 o
368.3 50.1121 o
367.731 50.1121 o
367.161 50.1121 o
366.591 50.1121 o
366.022 50.1121 o
365.452 50.1121 o
364.883 50.1121 o
364.313 50.1121 o
363.744 50.1121 o
363.174 50.1121 o
362.604 50.1121 o
362.035 50.1121 o
361.465 50.1121 o
360.896 50.1121 o
360.326 50.1121 o
359.757 50.1121 o
359.187 50.1121 o
358.617 50.1121 o
358.048 50.1121 o
357.478 50.1121 o
356.909 50.1121 o
356.339 50.1121 o
355.77 50.1121 o
355.2 50.1121 o
354.63 50.1121 o
354.061 50.1121 o
353.491 50.1121 o
352.922 50.1121 o
352.352 50.1121 o
351.783 50.1121 o
351.213 50.1121 o
350.643 50.1121 o
350.074 50.1121 o
349.504 50.1121 o
348.935 50.1121 o
348.365 50.1121 o
347.796 50.1121 o
347.226 50.1121 o
346.656 50.1121 o
346.087 50.1121 o
345.517 50.1122 o
344.948 50.1122 o
344.378 50.1122 o
343.809 50.1122 o
343.239 50.1122 o
342.669 50.1122 o
342.1 50.1122 o
341.53 50.1122 o
340.961 50.1122 o
340.391 50.1122 o
339.822 50.1122 o
339.252 50.1122 o
338.682 50.1122 o
338.113 50.1122 o
337.543 50.1122 o
336.974 50.1122 o
336.404 50.1122 o
335.835 50.1122 o
335.265 50.1122 o
334.696 50.1122 o
334.126 50.1122 o
333.556 50.1122 o
332.987 50.1122 o
332.417 50.1122 o
331.848 50.1122 o
331.278 50.1122 o
330.709 50.1122 o
330.139 50.1122 o
329.569 50.1122 o
329 50.1122 o
328.43 50.1122 o
327.861 50.1122 o
327.291 50.1122 o
326.722 50.1122 o
326.152 50.1122 o
325.582 50.1122 o
325.013 50.1122 o
324.443 50.1122 o
323.874 50.1122 o
323.304 50.1122 o
322.735 50.1122 o
322.165 50.1122 o
321.595 50.1122 o
321.026 50.1122 o
320.456 50.1122 o
319.887 50.1122 o
319.317 50.1122 o
318.748 50.1122 o
318.178 50.1122 o
317.608 50.1122 o
317.039 50.1122 o
316.469 50.1122 o
315.9 50.1122 o
315.33 50.1122 o
314.761 50.1122 o
314.191 50.1122 o
313.621 50.1122 o
313.052 50.1122 o
312.482 50.1122 o
311.913 50.1122 o
311.343 50.1122 o
310.774 50.1122 o
310.204 50.1123 o
309.634 50.1123 o
309.065 50.1123 o
308.495 50.1123 o
307.926 50.1123 o
307.356 50.1123 o
306.787 50.1124 o
306.217 50.1124 o
305.647 50.1124 o
305.078 50.1125 o
304.508 50.1125 o
grestore
1.000 0.000 0.000 setrgbcolor
gsave
357.1 266.1 57.6 38.02 clipbox
/o {
gsave
newpath
translate
1.0 setlinewidth
1 setlinejoin
0 setlinecap
0 -0.5 m
0.132602 -0.5 0.25979 -0.447317 0.353553 -0.353553 c
0.447317 -0.25979 0.5 -0.132602 0.5 0 c
0.5 0.132602 0.447317 0.25979 0.353553 0.353553 c
0.25979 0.447317 0.132602 0.5 0 0.5 c
-0.132602 0.5 -0.25979 0.447317 -0.353553 0.353553 c
-0.447317 0.25979 -0.5 0.132602 -0.5 0 c
-0.5 -0.132602 -0.447317 -0.25979 -0.353553 -0.353553 c
-0.25979 -0.447317 -0.132602 -0.5 0 -0.5 c
cl

gsave
1.000 0.000 0.000 setrgbcolor
fill
grestore
stroke
grestore
} bind def
73.8327 291.978 o
79.5284 292.018 o
85.2241 292.032 o
90.9198 292.032 o
96.6155 292.024 o
102.311 291.99 o
108.007 291.92 o
113.703 291.821 o
119.398 291.663 o
125.094 291.47 o
130.79 291.286 o
136.485 291.094 o
142.181 290.737 o
147.877 290.198 o
153.572 289.498 o
159.268 288.653 o
164.964 287.673 o
170.66 286.567 o
176.355 285.339 o
182.051 283.994 o
187.747 282.534 o
193.442 280.959 o
199.138 279.271 o
204.834 277.467 o
210.529 275.546 o
216.225 273.504 o
221.921 271.339 o
227.616 269.046 o
233.312 266.619 o
239.008 264.052 o
244.704 261.337 o
250.399 258.465 o
256.095 255.426 o
261.791 252.207 o
267.486 248.793 o
273.182 245.166 o
278.878 241.305 o
284.573 237.184 o
290.269 232.768 o
295.965 228.015 o
301.66 222.871 o
307.356 217.259 o
313.052 211.075 o
318.748 204.161 o
324.443 196.261 o
330.139 186.912 o
335.835 175.062 o
341.53 156.614 o
347.226 50.112 o
352.922 50.1128 o
358.617 50.1122 o
364.313 50.1133 o
370.009 50.1125 o
375.704 50.1125 o
381.4 50.1125 o
387.096 50.1125 o
392.792 50.1123 o
398.487 50.1121 o
grestore
0.800 setlinewidth
0 setlinejoin
2 setlinecap
[] 0 setdash
0.000 setgray
gsave
57.6 38.016 m
57.6 304.128 l
stroke
grestore
gsave
414.72 38.016 m
414.72 304.128 l
stroke
grestore
gsave
57.6 38.016 m
414.72 38.016 l
stroke
grestore
gsave
57.6 304.128 m
414.72 304.128 l
stroke
grestore

end
showpage
